<?xml version="1.0" encoding="UTF-8" standalone="no"?>
<!-- Created with Inkscape (http://www.inkscape.org/) -->

<svg
   xmlns:dc="http://purl.org/dc/elements/1.1/"
   xmlns:cc="http://creativecommons.org/ns#"
   xmlns:rdf="http://www.w3.org/1999/02/22-rdf-syntax-ns#"
   xmlns:svg="http://www.w3.org/2000/svg"
   xmlns="http://www.w3.org/2000/svg"
   xmlns:sodipodi="http://sodipodi.sourceforge.net/DTD/sodipodi-0.dtd"
   xmlns:inkscape="http://www.inkscape.org/namespaces/inkscape"
   width="13.6427mm"
   height="4.6115875mm"
   viewBox="0 0 48.340277 16.340271"
   id="svg3807"
   version="1.1"
   inkscape:version="0.92.3 (2405546, 2018-03-11)"
   sodipodi:docname="lights.svg"
   inkscape:export-filename="/tmp/processing.png"
   inkscape:export-xdpi="130.32613"
   inkscape:export-ydpi="130.32613">
  <defs
     id="defs3809" />
  <sodipodi:namedview
     id="base"
     pagecolor="#ffffff"
     bordercolor="#666666"
     borderopacity="1.0"
     inkscape:pageopacity="0.0"
     inkscape:pageshadow="2"
     inkscape:zoom="31.678384"
     inkscape:cx="24.68758"
     inkscape:cy="2.8416922"
     inkscape:document-units="px"
     inkscape:current-layer="layer4"
     showgrid="false"
     fit-margin-left="0.3"
     fit-margin-right="0.3"
     fit-margin-top="0.3"
     fit-margin-bottom="0.3"
     inkscape:window-width="2558"
     inkscape:window-height="1419"
     inkscape:window-x="0"
     inkscape:window-y="0"
     inkscape:window-maximized="0" />
  <metadata
     id="metadata3812">
    <rdf:RDF>
      <cc:Work
         rdf:about="">
        <dc:format>image/svg+xml</dc:format>
        <dc:type
           rdf:resource="http://purl.org/dc/dcmitype/StillImage" />
        <dc:title></dc:title>
      </cc:Work>
    </rdf:RDF>
  </metadata>
  <g
     inkscape:groupmode="layer"
     id="layer4"
     inkscape:label="grey"
     style="display:inline">
    <circle
       r="6.6071429"
       cy="-8.1701479"
       cx="-24.115017"
       id="circle4203-6"
       style="display:inline;opacity:1;fill:#c9c9c9;fill-opacity:1;stroke:#afafaf;stroke-width:1;stroke-miterlimit:4;stroke-dasharray:none;stroke-dashoffset:0;stroke-opacity:1"
       transform="scale(-1)" />
    <circle
       transform="scale(-1)"
       style="display:inline;opacity:1;fill:#c9c9c9;fill-opacity:1;stroke:#afafaf;stroke-width:1;stroke-miterlimit:4;stroke-dasharray:none;stroke-dashoffset:0;stroke-opacity:1"
       id="circle4203-5-3"
       cx="-40.059902"
       cy="-8.1701393"
       r="6.6071429" />
    <circle
       r="6.6071429"
       cy="-8.1701441"
       cx="-8.1701393"
       id="circle4203-5"
       style="display:inline;opacity:1;fill:#c9c9c9;fill-opacity:1;stroke:#afafaf;stroke-width:1;stroke-miterlimit:4;stroke-dasharray:none;stroke-dashoffset:0;stroke-opacity:1"
       transform="scale(-0.99999999)" />
  </g>
  <g
     inkscape:label="green"
     inkscape:groupmode="layer"
     id="layer1"
     transform="translate(-196.04312,-302.7401)"
     style="display:inline">
    <circle
       style="opacity:1;fill:#40c844;fill-opacity:1;stroke:#39ad36;stroke-width:1;stroke-miterlimit:4;stroke-dasharray:none;stroke-dashoffset:0;stroke-opacity:1"
       id="path3401-3"
       cx="-236.10303"
       cy="-310.91025"
       r="6.6071429"
       transform="scale(-1)" />
  </g>
  <g
     inkscape:groupmode="layer"
     id="layer2"
     inkscape:label="yellow"
     style="display:inline">
    <circle
       r="6.6071429"
       cy="-8.1701365"
       cx="-24.115017"
       id="circle4272-3"
       style="opacity:1;fill:#f9bd39;fill-opacity:1;stroke:#da9f2d;stroke-width:1;stroke-miterlimit:4;stroke-dasharray:none;stroke-dashoffset:0;stroke-opacity:1"
       transform="scale(-1)" />
  </g>
  <g
     inkscape:groupmode="layer"
     id="layer3"
     inkscape:label="red"
     style="display:inline">
    <circle
       style="opacity:1;fill:#f7635c;fill-opacity:1;stroke:#da4c48;stroke-width:1;stroke-miterlimit:4;stroke-dasharray:none;stroke-dashoffset:0;stroke-opacity:1"
       id="circle4205-9"
       cx="-8.1701355"
       cy="-8.1701365"
       r="6.6071429"
       transform="scale(-1)" />
  </g>
</svg>
