<?xml version="1.0" encoding="UTF-8" standalone="no"?>
<!-- Created with Inkscape (http://www.inkscape.org/) -->

<svg
   xmlns:dc="http://purl.org/dc/elements/1.1/"
   xmlns:cc="http://creativecommons.org/ns#"
   xmlns:rdf="http://www.w3.org/1999/02/22-rdf-syntax-ns#"
   xmlns:svg="http://www.w3.org/2000/svg"
   xmlns="http://www.w3.org/2000/svg"
   xmlns:xlink="http://www.w3.org/1999/xlink"
   xmlns:sodipodi="http://sodipodi.sourceforge.net/DTD/sodipodi-0.dtd"
   xmlns:inkscape="http://www.inkscape.org/namespaces/inkscape"
   width="32"
   height="32"
   id="svg2"
   version="1.1"
   inkscape:version="0.48.4 r9939"
   sodipodi:docname="deleteSIB.svg"
   inkscape:export-filename="/home/naujokat/git/itmc/cinco-inhouse-examples/DIME/info.scce.dime/icons/deleteSIB.png"
   inkscape:export-xdpi="90"
   inkscape:export-ydpi="90">
  <defs
     id="defs4">
    <linearGradient
       id="linearGradient3884">
      <stop
         style="stop-color:#2a28b4;stop-opacity:1;"
         offset="0"
         id="stop3886" />
      <stop
         style="stop-color:#7271de;stop-opacity:1;"
         offset="1"
         id="stop3888" />
    </linearGradient>
    <linearGradient
       inkscape:collect="always"
       xlink:href="#linearGradient3884-1"
       id="linearGradient3890-1"
       x1="29.969864"
       y1="8.9185734"
       x2="21.712978"
       y2="-0.41865361"
       gradientUnits="userSpaceOnUse"
       gradientTransform="matrix(0.84631672,0,0,0.84631672,-2.6448071,158.43108)" />
    <linearGradient
       id="linearGradient3884-1">
      <stop
         style="stop-color:#2a28b4;stop-opacity:1;"
         offset="0"
         id="stop3886-5" />
      <stop
         style="stop-color:#7271de;stop-opacity:1;"
         offset="1"
         id="stop3888-5" />
    </linearGradient>
    <linearGradient
       y2="-0.41865361"
       x2="21.712978"
       y1="8.9185734"
       x1="29.969864"
       gradientUnits="userSpaceOnUse"
       id="linearGradient3801"
       xlink:href="#linearGradient3884-1"
       inkscape:collect="always" />
    <linearGradient
       inkscape:collect="always"
       xlink:href="#linearGradient3884-3"
       id="linearGradient3890-11"
       x1="29.969864"
       y1="8.9185734"
       x2="21.712978"
       y2="-0.41865361"
       gradientUnits="userSpaceOnUse" />
    <linearGradient
       id="linearGradient3884-3">
      <stop
         style="stop-color:#2a28b4;stop-opacity:1;"
         offset="0"
         id="stop3886-3" />
      <stop
         style="stop-color:#7271de;stop-opacity:1;"
         offset="1"
         id="stop3888-58" />
    </linearGradient>
    <linearGradient
       y2="-0.41865361"
       x2="21.712978"
       y1="8.9185734"
       x1="29.969864"
       gradientUnits="userSpaceOnUse"
       id="linearGradient3801-4"
       xlink:href="#linearGradient3884-3"
       inkscape:collect="always" />
    <linearGradient
       inkscape:collect="always"
       xlink:href="#linearGradient3884-3"
       id="linearGradient3844"
       gradientUnits="userSpaceOnUse"
       x1="29.969864"
       y1="8.9185734"
       x2="21.712978"
       y2="-0.41865361" />
    <linearGradient
       inkscape:collect="always"
       xlink:href="#linearGradient3884-1"
       id="linearGradient3846"
       gradientUnits="userSpaceOnUse"
       gradientTransform="matrix(0.84631672,0,0,0.84631672,-2.6448071,158.43108)"
       x1="29.969864"
       y1="8.9185734"
       x2="21.712978"
       y2="-0.41865361" />
    <linearGradient
       inkscape:collect="always"
       xlink:href="#linearGradient3884-1"
       id="linearGradient3849"
       gradientUnits="userSpaceOnUse"
       gradientTransform="matrix(0.7135622,0,0,0.7135622,28.320559,301.22435)"
       x1="29.969864"
       y1="8.9185734"
       x2="21.712978"
       y2="-0.41865361" />
    <linearGradient
       inkscape:collect="always"
       xlink:href="#linearGradient3884-3"
       id="linearGradient3853"
       gradientUnits="userSpaceOnUse"
       x1="29.969864"
       y1="8.9185734"
       x2="21.712978"
       y2="-0.41865361"
       gradientTransform="translate(33.25,5.9375)" />
    <linearGradient
       inkscape:collect="always"
       xlink:href="#linearGradient3884-1-9"
       id="linearGradient3862-7"
       gradientUnits="userSpaceOnUse"
       gradientTransform="matrix(0.7135622,0,0,0.7135622,28.320559,301.22435)"
       x1="29.969864"
       y1="8.9185734"
       x2="21.712978"
       y2="-0.41865361" />
    <linearGradient
       id="linearGradient3884-1-9">
      <stop
         style="stop-color:#2a28b4;stop-opacity:1;"
         offset="0"
         id="stop3886-5-8" />
      <stop
         style="stop-color:#7271de;stop-opacity:1;"
         offset="1"
         id="stop3888-5-4" />
    </linearGradient>
  </defs>
  <sodipodi:namedview
     id="base"
     pagecolor="#ffffff"
     bordercolor="#666666"
     borderopacity="1.0"
     inkscape:pageopacity="0.0"
     inkscape:pageshadow="2"
     inkscape:zoom="11.313708"
     inkscape:cx="23.182546"
     inkscape:cy="17.332459"
     inkscape:document-units="px"
     inkscape:current-layer="layer1"
     showgrid="false"
     inkscape:window-width="2560"
     inkscape:window-height="1375"
     inkscape:window-x="0"
     inkscape:window-y="0"
     inkscape:window-maximized="1">
    <inkscape:grid
       type="xygrid"
       id="grid3753"
       empspacing="5"
       visible="true"
       enabled="true"
       snapvisiblegridlinesonly="true" />
  </sodipodi:namedview>
  <metadata
     id="metadata7">
    <rdf:RDF>
      <cc:Work
         rdf:about="">
        <dc:format>image/svg+xml</dc:format>
        <dc:type
           rdf:resource="http://purl.org/dc/dcmitype/StillImage" />
        <dc:title></dc:title>
      </cc:Work>
    </rdf:RDF>
  </metadata>
  <g
     inkscape:label="Layer 1"
     inkscape:groupmode="layer"
     id="layer1"
     transform="translate(0,-1020.3622)">
    <path
       sodipodi:type="arc"
       style="color:#000000;fill:#d9d9d9;fill-opacity:1;fill-rule:nonzero;stroke:none;stroke-width:1;marker:none;visibility:visible;display:inline;overflow:visible;enable-background:accumulate"
       id="path3010"
       sodipodi:cx="26.162951"
       sodipodi:cy="4.2885437"
       sodipodi:rx="6.5849319"
       sodipodi:ry="6.5849319"
       d="m 32.747882,4.2885437 c 0,3.6367574 -2.948174,6.5849323 -6.584931,6.5849323 -3.636758,0 -6.584932,-2.9481749 -6.584932,-6.5849323 0,-3.63675744 2.948174,-6.5849318 6.584932,-6.5849318 3.636757,0 6.584931,2.94817436 6.584931,6.5849318 z"
       transform="matrix(2.4297898,0,0,2.4297898,-47.57047,1025.9419)" />
    <g
       id="g3843"
       transform="translate(0.20212352,-1.0938618)">
      <rect
         style="color:#000000;fill:#838383;fill-opacity:1;stroke:#000000;stroke-width:1;stroke-miterlimit:4;stroke-opacity:1;stroke-dasharray:none;marker:none;visibility:visible;display:inline;overflow:visible;enable-background:accumulate"
         id="rect3017"
         width="14.411291"
         height="18.738331"
         x="8.4852839"
         y="1029.0277"
         ry="1.5025439"
         rx="1.5025439" />
      <path
         inkscape:connector-curvature="0"
         id="path3791"
         d="m 11.844039,1034.3862 0,11.4023"
         style="fill:none;stroke:#000000;stroke-width:1;stroke-linecap:round;stroke-linejoin:miter;stroke-miterlimit:4;stroke-opacity:1;stroke-dasharray:none" />
      <path
         inkscape:connector-curvature="0"
         id="path3791-1"
         d="m 15.622641,1034.3862 0,11.4023"
         style="fill:none;stroke:#000000;stroke-width:1;stroke-linecap:round;stroke-linejoin:miter;stroke-miterlimit:4;stroke-opacity:1;stroke-dasharray:none" />
      <path
         inkscape:connector-curvature="0"
         id="path3791-4"
         d="m 19.401243,1034.3864 0,11.4021"
         style="fill:none;stroke:#000000;stroke-width:1;stroke-linecap:round;stroke-linejoin:miter;stroke-miterlimit:4;stroke-opacity:1;stroke-dasharray:none" />
      <path
         sodipodi:nodetypes="sssssssss"
         inkscape:connector-curvature="0"
         id="rect3818"
         d="m 22.177091,1028.7933 -12.7615098,0 c -0.83241,0 -1.502544,0.6702 -1.502544,1.5026 l 0,0.5683 c 0,0.8324 -0.157991,1.5026 0.674419,1.5026 l 14.4333848,0 c 0.832409,0 0.658794,-0.6702 0.658794,-1.5026 l 0,-0.5683 c 0,-0.8324 -0.670135,-1.5026 -1.502544,-1.5026 z"
         style="color:#000000;fill:#838383;fill-opacity:1;fill-rule:nonzero;stroke:#000000;stroke-width:1;stroke-linecap:butt;stroke-linejoin:miter;stroke-miterlimit:4;stroke-opacity:1;stroke-dasharray:none;stroke-dashoffset:0;marker:none;visibility:visible;display:inline;overflow:visible;enable-background:accumulate" />
      <path
         sodipodi:open="true"
         sodipodi:end="3.1415927"
         sodipodi:start="0"
         transform="matrix(0.58284023,0,0,-0.49497769,6.8913495,1024.1452)"
         d="m 20.5625,-9.125 c 0,1.691372 -2.364496,3.0625 -5.28125,3.0625 C 12.364496,-6.0625 10,-7.433628 10,-9.125 c 0,0 0,-10e-8 0,-10e-8"
         sodipodi:ry="3.0625"
         sodipodi:rx="5.28125"
         sodipodi:cy="-9.125"
         sodipodi:cx="15.28125"
         id="path3841"
         style="color:#000000;fill:none;stroke:#000000;stroke-width:1.86179745;stroke-linecap:butt;stroke-linejoin:miter;stroke-miterlimit:4;stroke-opacity:1;stroke-dasharray:none;stroke-dashoffset:0;marker:none;visibility:visible;display:inline;overflow:visible;enable-background:accumulate"
         sodipodi:type="arc" />
    </g>
  </g>
</svg>
