<?xml version="1.0" encoding="UTF-8" standalone="no"?>
<!-- Created with Inkscape (http://www.inkscape.org/) -->

<svg
   xmlns:dc="http://purl.org/dc/elements/1.1/"
   xmlns:cc="http://creativecommons.org/ns#"
   xmlns:rdf="http://www.w3.org/1999/02/22-rdf-syntax-ns#"
   xmlns:svg="http://www.w3.org/2000/svg"
   xmlns="http://www.w3.org/2000/svg"
   xmlns:sodipodi="http://sodipodi.sourceforge.net/DTD/sodipodi-0.dtd"
   xmlns:inkscape="http://www.inkscape.org/namespaces/inkscape"
   width="32"
   height="32"
   id="svg2"
   version="1.1"
   inkscape:version="0.48.4 r9939"
   sodipodi:docname="enumSwitchSIB.svg"
   inkscape:export-filename="/home/naujokat/git/itmc/cinco-inhouse-examples/DIME/info.scce.dime/icons/enumSwitchSIB.png"
   inkscape:export-xdpi="90"
   inkscape:export-ydpi="90">
  <defs
     id="defs4" />
  <sodipodi:namedview
     id="base"
     pagecolor="#ffffff"
     bordercolor="#666666"
     borderopacity="1.0"
     inkscape:pageopacity="0.0"
     inkscape:pageshadow="2"
     inkscape:zoom="2.8284271"
     inkscape:cx="-1.5097913"
     inkscape:cy="25.937576"
     inkscape:document-units="px"
     inkscape:current-layer="layer1"
     showgrid="true"
     inkscape:window-width="1920"
     inkscape:window-height="1014"
     inkscape:window-x="0"
     inkscape:window-y="0"
     inkscape:window-maximized="1">
    <inkscape:grid
       type="xygrid"
       id="grid3753"
       empspacing="5"
       visible="true"
       enabled="true"
       snapvisiblegridlinesonly="true" />
  </sodipodi:namedview>
  <metadata
     id="metadata7">
    <rdf:RDF>
      <cc:Work
         rdf:about="">
        <dc:format>image/svg+xml</dc:format>
        <dc:type
           rdf:resource="http://purl.org/dc/dcmitype/StillImage" />
        <dc:title></dc:title>
      </cc:Work>
    </rdf:RDF>
  </metadata>
  <g
     inkscape:label="Layer 1"
     inkscape:groupmode="layer"
     id="layer1"
     transform="translate(0,-1020.3622)">
    <path
       sodipodi:type="arc"
       style="color:#000000;fill:#8e5c24;fill-opacity:1;fill-rule:nonzero;stroke:#8e5c24;stroke-width:0.50000000000000000;stroke-linecap:round;stroke-linejoin:round;stroke-miterlimit:4;stroke-opacity:1;stroke-dasharray:none;stroke-dashoffset:0;marker:none;visibility:visible;display:inline;overflow:visible;enable-background:accumulate"
       id="path2993"
       sodipodi:cx="-9.046875"
       sodipodi:cy="6.453125"
       sodipodi:rx="5.328125"
       sodipodi:ry="5.328125"
       d="m -3.71875,6.453125 c 0,2.9426422 -2.3854828,5.328125 -5.328125,5.328125 -2.942642,0 -5.328125,-2.3854828 -5.328125,-5.328125 0,-2.9426422 2.385483,-5.328125 5.328125,-5.328125 2.9426422,0 5.328125,2.3854828 5.328125,5.328125 z"
       transform="matrix(2.8683474,0,0,2.8683474,41.949581,1017.8524)" />
    <path
       sodipodi:type="star"
       style="color:#000000;fill:#ffffff;fill-opacity:1;fill-rule:nonzero;stroke:none;stroke-width:0.09329133;marker:none;visibility:visible;display:inline;overflow:visible;enable-background:accumulate"
       id="path3451-5"
       sodipodi:sides="3"
       sodipodi:cx="13.75"
       sodipodi:cy="6.125"
       sodipodi:r1="2.7135367"
       sodipodi:r2="1.3567683"
       sodipodi:arg1="0.52359878"
       sodipodi:arg2="1.5707963"
       inkscape:flatsided="false"
       inkscape:rounded="0"
       inkscape:randomized="0"
       d="m 16.099992,7.4817684 -2.349992,-1e-7 -2.349992,1e-7 L 12.575004,5.4466159 13.75,3.4114633 14.924996,5.4466158 z"
       transform="matrix(-1.2766002,0,0,-1.2766002,33.561987,1055.7832)"
       inkscape:transform-center-y="0.86595581" />
    <path
       sodipodi:type="star"
       style="color:#000000;fill:#ffffff;fill-opacity:1;fill-rule:nonzero;stroke:none;stroke-width:0.09329133;marker:none;visibility:visible;display:inline;overflow:visible;enable-background:accumulate"
       id="path3451-9"
       sodipodi:sides="3"
       sodipodi:cx="13.75"
       sodipodi:cy="6.125"
       sodipodi:r1="2.7135367"
       sodipodi:r2="1.3567683"
       sodipodi:arg1="0.52359878"
       sodipodi:arg2="1.5707963"
       inkscape:flatsided="false"
       inkscape:rounded="0"
       inkscape:randomized="0"
       d="m 16.099992,7.4817684 -2.349992,-1e-7 -2.349992,1e-7 L 12.575004,5.4466159 13.75,3.4114633 14.924996,5.4466158 z"
       transform="matrix(-1.1055682,-0.63830009,0.63830009,-1.1055682,19.777724,1060.7289)"
       inkscape:transform-center-y="-2.4806422e-05"
       inkscape:transform-center-x="-0.86605742" />
    <path
       sodipodi:type="star"
       style="color:#000000;fill:#ffffff;fill-opacity:1;fill-rule:nonzero;stroke:none;stroke-width:0.09329133;marker:none;visibility:visible;display:inline;overflow:visible;enable-background:accumulate"
       id="path3451-9-6"
       sodipodi:sides="3"
       sodipodi:cx="13.75"
       sodipodi:cy="6.125"
       sodipodi:r1="2.7135367"
       sodipodi:r2="1.3567683"
       sodipodi:arg1="0.52359878"
       sodipodi:arg2="1.5707963"
       inkscape:flatsided="false"
       inkscape:rounded="0"
       inkscape:randomized="0"
       d="m 16.099992,7.4817684 -2.349992,-1e-7 -2.349992,1e-7 L 12.575004,5.4466159 13.75,3.4114633 14.924996,5.4466158 z"
       transform="matrix(-0.6383001,-1.1055682,1.1055682,-0.6383001,5.9942556,1057.1812)"
       inkscape:transform-center-y="-0.86606959"
       inkscape:transform-center-x="-4.0184545e-05" />
    <path
       sodipodi:type="star"
       style="color:#000000;fill:#ffffff;fill-opacity:1;fill-rule:nonzero;stroke:none;stroke-width:0.09329133;marker:none;visibility:visible;display:inline;overflow:visible;enable-background:accumulate"
       id="path3451-5-7"
       sodipodi:sides="3"
       sodipodi:cx="13.75"
       sodipodi:cy="6.125"
       sodipodi:r1="2.7135367"
       sodipodi:r2="1.3567683"
       sodipodi:arg1="0.52359878"
       sodipodi:arg2="1.5707963"
       inkscape:flatsided="false"
       inkscape:rounded="0"
       inkscape:randomized="0"
       d="m 16.099992,7.4817684 -2.349992,-1e-7 -2.349992,1e-7 L 12.575004,5.4466159 13.75,3.4114633 14.924996,5.4466158 z"
       transform="matrix(-1.1055682,0.63830009,-0.63830009,-1.1055682,42.731305,1043.0554)"
       inkscape:transform-center-y="2.7689098e-05"
       inkscape:transform-center-x="0.86604842" />
    <path
       sodipodi:type="star"
       style="color:#000000;fill:#ffffff;fill-opacity:1;fill-rule:nonzero;stroke:none;stroke-width:0.09329133;marker:none;visibility:visible;display:inline;overflow:visible;enable-background:accumulate"
       id="path3451-5-7-0"
       sodipodi:sides="3"
       sodipodi:cx="13.75"
       sodipodi:cy="6.125"
       sodipodi:r1="2.7135367"
       sodipodi:r2="1.3567683"
       sodipodi:arg1="0.52359878"
       sodipodi:arg2="1.5707963"
       inkscape:flatsided="false"
       inkscape:rounded="0"
       inkscape:randomized="0"
       d="m 16.099992,7.4817684 -2.349992,-1e-7 -2.349992,1e-7 L 12.575004,5.4466159 13.75,3.4114633 14.924996,5.4466158 z"
       transform="matrix(-0.6383001,1.1055682,-1.1055682,-0.6383001,43.53066,1026.9109)"
       inkscape:transform-center-y="-0.86594408" />
    <text
       xml:space="preserve"
       style="font-size:11.80809784px;font-style:normal;font-variant:normal;font-weight:bold;font-stretch:normal;text-align:center;line-height:125%;letter-spacing:0px;word-spacing:0px;writing-mode:lr-tb;text-anchor:middle;fill:#ffffff;fill-opacity:1;stroke:none;font-family:Sans;-inkscape-font-specification:Sans Bold"
       x="17.25"
       y="1032.1122"
       id="text3780"
       sodipodi:linespacing="125%"><tspan
         sodipodi:role="line"
         id="tspan3782"
         x="17.25"
         y="1032.1122">E?</tspan></text>
    <rect
       style="color:#000000;fill:#ffffff;fill-opacity:1;fill-rule:nonzero;stroke:none;stroke-width:0.83333331;marker:none;visibility:visible;display:inline;overflow:visible;enable-background:accumulate"
       id="rect4456"
       width="2"
       height="9.4045677"
       x="15.008735"
       y="1037.3639" />
    <rect
       y="891.38312"
       x="528.83148"
       height="10"
       width="2"
       id="rect4476"
       style="color:#000000;fill:#ffffff;fill-opacity:1;fill-rule:nonzero;stroke:none;stroke-width:0.83333331;marker:none;visibility:visible;display:inline;overflow:visible;enable-background:accumulate"
       transform="matrix(0.8660254,0.5,-0.5,0.8660254,0,0)" />
    <rect
       transform="matrix(-0.8660254,0.5,0.5,0.8660254,0,0)"
       style="color:#000000;fill:#ffffff;fill-opacity:1;fill-rule:nonzero;stroke:none;stroke-width:0.83333331;marker:none;visibility:visible;display:inline;overflow:visible;enable-background:accumulate"
       id="rect4478"
       width="2"
       height="10"
       x="501.08029"
       y="907.44177" />
    <rect
       y="508.10782"
       x="900.13074"
       height="7"
       width="2"
       id="rect4480"
       style="color:#000000;fill:#ffffff;fill-opacity:1;fill-rule:nonzero;stroke:none;stroke-width:0.83333331;marker:none;visibility:visible;display:inline;overflow:visible;enable-background:accumulate"
       transform="matrix(0.5,0.8660254,-0.8660254,0.5,0,0)" />
    <rect
       transform="matrix(-0.5,0.8660254,0.8660254,0.5,0,0)"
       style="color:#000000;fill:#ffffff;fill-opacity:1;fill-rule:nonzero;stroke:none;stroke-width:0.83333331;marker:none;visibility:visible;display:inline;overflow:visible;enable-background:accumulate"
       id="rect4482"
       width="2"
       height="7"
       x="884.16559"
       y="535.94897" />
  </g>
</svg>
