<?xml version="1.0" encoding="UTF-8" standalone="no"?>
<!-- Created with Inkscape (http://www.inkscape.org/) -->

<svg
   xmlns:dc="http://purl.org/dc/elements/1.1/"
   xmlns:cc="http://creativecommons.org/ns#"
   xmlns:rdf="http://www.w3.org/1999/02/22-rdf-syntax-ns#"
   xmlns:svg="http://www.w3.org/2000/svg"
   xmlns="http://www.w3.org/2000/svg"
   xmlns:xlink="http://www.w3.org/1999/xlink"
   xmlns:sodipodi="http://sodipodi.sourceforge.net/DTD/sodipodi-0.dtd"
   xmlns:inkscape="http://www.inkscape.org/namespaces/inkscape"
   width="32"
   height="32"
   id="svg2"
   version="1.1"
   inkscape:version="0.48.4 r9939"
   sodipodi:docname="guardProcessSIB.svg"
   inkscape:export-filename="/home/naujokat/git/itmc/cinco-inhouse-examples/DIME/info.scce.dime/icons/guardProcessSIB.png"
   inkscape:export-xdpi="90"
   inkscape:export-ydpi="90">
  <defs
     id="defs4">
    <linearGradient
       id="linearGradient3884">
      <stop
         style="stop-color:#2a28b4;stop-opacity:1;"
         offset="0"
         id="stop3886" />
      <stop
         style="stop-color:#7271de;stop-opacity:1;"
         offset="1"
         id="stop3888" />
    </linearGradient>
    <linearGradient
       inkscape:collect="always"
       xlink:href="#linearGradient3884-1"
       id="linearGradient3890-1"
       x1="29.969864"
       y1="8.9185734"
       x2="21.712978"
       y2="-0.41865361"
       gradientUnits="userSpaceOnUse"
       gradientTransform="matrix(0.84631672,0,0,0.84631672,-2.6448071,158.43108)" />
    <linearGradient
       id="linearGradient3884-1">
      <stop
         style="stop-color:#2a28b4;stop-opacity:1;"
         offset="0"
         id="stop3886-5" />
      <stop
         style="stop-color:#7271de;stop-opacity:1;"
         offset="1"
         id="stop3888-5" />
    </linearGradient>
    <linearGradient
       y2="-0.41865361"
       x2="21.712978"
       y1="8.9185734"
       x1="29.969864"
       gradientUnits="userSpaceOnUse"
       id="linearGradient3801"
       xlink:href="#linearGradient3884-1"
       inkscape:collect="always" />
    <linearGradient
       inkscape:collect="always"
       xlink:href="#linearGradient3884-3"
       id="linearGradient3890-11"
       x1="29.969864"
       y1="8.9185734"
       x2="21.712978"
       y2="-0.41865361"
       gradientUnits="userSpaceOnUse" />
    <linearGradient
       id="linearGradient3884-3">
      <stop
         style="stop-color:#2a28b4;stop-opacity:1;"
         offset="0"
         id="stop3886-3" />
      <stop
         style="stop-color:#7271de;stop-opacity:1;"
         offset="1"
         id="stop3888-58" />
    </linearGradient>
    <linearGradient
       y2="-0.41865361"
       x2="21.712978"
       y1="8.9185734"
       x1="29.969864"
       gradientUnits="userSpaceOnUse"
       id="linearGradient3801-4"
       xlink:href="#linearGradient3884-3"
       inkscape:collect="always" />
    <linearGradient
       inkscape:collect="always"
       xlink:href="#linearGradient3884-3"
       id="linearGradient3844"
       gradientUnits="userSpaceOnUse"
       x1="29.969864"
       y1="8.9185734"
       x2="21.712978"
       y2="-0.41865361" />
    <linearGradient
       inkscape:collect="always"
       xlink:href="#linearGradient3884-1"
       id="linearGradient3846"
       gradientUnits="userSpaceOnUse"
       gradientTransform="matrix(0.84631672,0,0,0.84631672,-2.6448071,158.43108)"
       x1="29.969864"
       y1="8.9185734"
       x2="21.712978"
       y2="-0.41865361" />
    <linearGradient
       inkscape:collect="always"
       xlink:href="#linearGradient3884-1"
       id="linearGradient3849"
       gradientUnits="userSpaceOnUse"
       gradientTransform="matrix(0.7135622,0,0,0.7135622,28.320559,301.22435)"
       x1="29.969864"
       y1="8.9185734"
       x2="21.712978"
       y2="-0.41865361" />
    <linearGradient
       inkscape:collect="always"
       xlink:href="#linearGradient3884-3"
       id="linearGradient3853"
       gradientUnits="userSpaceOnUse"
       x1="29.969864"
       y1="8.9185734"
       x2="21.712978"
       y2="-0.41865361"
       gradientTransform="translate(33.25,5.9375)" />
    <linearGradient
       inkscape:collect="always"
       xlink:href="#linearGradient3884-1-9"
       id="linearGradient3862-7"
       gradientUnits="userSpaceOnUse"
       gradientTransform="matrix(0.7135622,0,0,0.7135622,28.320559,301.22435)"
       x1="29.969864"
       y1="8.9185734"
       x2="21.712978"
       y2="-0.41865361" />
    <linearGradient
       id="linearGradient3884-1-9">
      <stop
         style="stop-color:#2a28b4;stop-opacity:1;"
         offset="0"
         id="stop3886-5-8" />
      <stop
         style="stop-color:#7271de;stop-opacity:1;"
         offset="1"
         id="stop3888-5-4" />
    </linearGradient>
  </defs>
  <sodipodi:namedview
     id="base"
     pagecolor="#ffffff"
     bordercolor="#666666"
     borderopacity="1.0"
     inkscape:pageopacity="0.0"
     inkscape:pageshadow="2"
     inkscape:zoom="11.313708"
     inkscape:cx="34.035369"
     inkscape:cy="19.550969"
     inkscape:document-units="px"
     inkscape:current-layer="g3855"
     showgrid="false"
     inkscape:window-width="2560"
     inkscape:window-height="1375"
     inkscape:window-x="0"
     inkscape:window-y="0"
     inkscape:window-maximized="1">
    <inkscape:grid
       type="xygrid"
       id="grid3753"
       empspacing="5"
       visible="true"
       enabled="true"
       snapvisiblegridlinesonly="true" />
  </sodipodi:namedview>
  <metadata
     id="metadata7">
    <rdf:RDF>
      <cc:Work
         rdf:about="">
        <dc:format>image/svg+xml</dc:format>
        <dc:type
           rdf:resource="http://purl.org/dc/dcmitype/StillImage" />
        <dc:title></dc:title>
      </cc:Work>
    </rdf:RDF>
  </metadata>
  <g
     inkscape:label="Layer 1"
     inkscape:groupmode="layer"
     id="layer1"
     transform="translate(0,-1020.3622)">
    <path
       sodipodi:type="arc"
       style="color:#000000;fill:#b3b3b3;fill-opacity:1;fill-rule:nonzero;stroke:none;stroke-width:1;marker:none;visibility:visible;display:inline;overflow:visible;enable-background:accumulate"
       id="path3010"
       sodipodi:cx="26.162951"
       sodipodi:cy="4.2885437"
       sodipodi:rx="6.5849319"
       sodipodi:ry="6.5849319"
       d="m 32.747882,4.2885437 c 0,3.6367574 -2.948174,6.5849323 -6.584931,6.5849323 -3.636758,0 -6.584932,-2.9481749 -6.584932,-6.5849323 0,-3.63675744 2.948174,-6.5849318 6.584932,-6.5849318 3.636757,0 6.584931,2.94817436 6.584931,6.5849318 z"
       transform="matrix(2.4297898,0,0,2.4297898,-47.57047,1025.9419)" />
    <g
       id="g3855"
       transform="translate(-0.04053433,0.15621)">
      <path
         sodipodi:nodetypes="ccccc"
         inkscape:connector-curvature="0"
         id="rect3009"
         d="m 6.100499,1028.3622 c 3.951715,0.4427 7.110843,-0.4734 9.899495,-2.0245 3.632476,1.8391 6.933684,2.5187 9.899495,2.0245 0.09877,6.4178 1.274192,12.8663 -9.899495,18.962 -11.003006,-6.5506 -9.605855,-12.731 -9.899495,-18.962 z"
         style="color:#000000;fill:#2a28b4;fill-opacity:1;fill-rule:nonzero;stroke:none;stroke-width:2.42978978000000012;marker:none;visibility:visible;display:inline;overflow:visible;enable-background:accumulate" />
      <path
         style="color:#000000;fill:#b3b3b3;fill-opacity:1;fill-rule:nonzero;stroke:none;stroke-width:1.25000012;marker:none;visibility:visible;display:inline;overflow:visible;enable-background:accumulate"
         d="m 7.9196616,1029.9121 c 3.2284974,0.3617 5.8094614,-0.3868 8.0877524,-1.654 2.967683,1.5025 5.664725,2.0577 8.087751,1.654 0.08069,5.2433 1.040998,10.5116 -8.087751,15.4917 -8.989305,-5.3517 -7.8478526,-10.4011 -8.0877524,-15.4917 z"
         id="path3782"
         inkscape:connector-curvature="0"
         sodipodi:nodetypes="ccccc" />
      <path
         sodipodi:nodetypes="ccccc"
         inkscape:connector-curvature="0"
         id="path3784"
         d="m 9.8396536,1031.5479 c 2.4651944,0.2762 4.4359474,-0.2952 6.1755904,-1.2629 2.266044,1.1473 4.325433,1.5712 6.175591,1.2629 0.06162,4.0036 0.794877,8.0263 -6.175591,11.829 -6.8639927,-4.0864 -5.992408,-7.942 -6.1755904,-11.829 z"
         style="color:#000000;fill:#2a28b4;fill-opacity:1;fill-rule:nonzero;stroke:none;stroke-width:2.42978978000000012;marker:none;visibility:visible;display:inline;overflow:visible;enable-background:accumulate" />
    </g>
  </g>
</svg>
