<?xml version="1.0" encoding="UTF-8" standalone="no"?>
<!-- Created with Inkscape (http://www.inkscape.org/) -->

<svg
   xmlns:dc="http://purl.org/dc/elements/1.1/"
   xmlns:cc="http://creativecommons.org/ns#"
   xmlns:rdf="http://www.w3.org/1999/02/22-rdf-syntax-ns#"
   xmlns:svg="http://www.w3.org/2000/svg"
   xmlns="http://www.w3.org/2000/svg"
   xmlns:sodipodi="http://sodipodi.sourceforge.net/DTD/sodipodi-0.dtd"
   xmlns:inkscape="http://www.inkscape.org/namespaces/inkscape"
   width="32"
   height="32"
   id="svg2"
   version="1.1"
   inkscape:version="0.91 r13725"
   sodipodi:docname="nativeFrontendSIB.svg"
   inkscape:export-filename="/home/grewe/workspace/dime/info.scce.dime/icons/branch.png"
   inkscape:export-xdpi="44.999996"
   inkscape:export-ydpi="44.999996">
  <defs
     id="defs4" />
  <sodipodi:namedview
     id="base"
     pagecolor="#ffffff"
     bordercolor="#666666"
     borderopacity="1.0"
     inkscape:pageopacity="0.0"
     inkscape:pageshadow="2"
     inkscape:zoom="5.6568543"
     inkscape:cx="-49.739882"
     inkscape:cy="-4.4526467"
     inkscape:document-units="px"
     inkscape:current-layer="layer1"
     showgrid="false"
     inkscape:window-width="1920"
     inkscape:window-height="1163"
     inkscape:window-x="634"
     inkscape:window-y="0"
     inkscape:window-maximized="1"
     inkscape:snap-grids="false"
     showguides="false"
     inkscape:snap-to-guides="true">
    <inkscape:grid
       type="xygrid"
       id="grid3753"
       empspacing="5"
       visible="true"
       enabled="true"
       snapvisiblegridlinesonly="true" />
  </sodipodi:namedview>
  <metadata
     id="metadata7">
    <rdf:RDF>
      <cc:Work
         rdf:about="">
        <dc:format>image/svg+xml</dc:format>
        <dc:type
           rdf:resource="http://purl.org/dc/dcmitype/StillImage" />
        <dc:title></dc:title>
      </cc:Work>
    </rdf:RDF>
  </metadata>
  <g
     inkscape:label="Layer 1"
     inkscape:groupmode="layer"
     id="layer1"
     transform="translate(0,-1020.3622)">
    <path
       sodipodi:type="arc"
       style="color:#000000;fill:#16155c;fill-opacity:1;fill-rule:nonzero;stroke:#16155b;stroke-width:0.5;stroke-linecap:round;stroke-linejoin:round;stroke-miterlimit:4;stroke-opacity:1;stroke-dasharray:none;stroke-dashoffset:0;marker:none;visibility:visible;display:inline;overflow:visible;enable-background:accumulate"
       id="path2993"
       sodipodi:cx="-9.046875"
       sodipodi:cy="6.453125"
       sodipodi:rx="5.328125"
       sodipodi:ry="5.328125"
       d="M -3.71875,6.453125 A 5.328125,5.328125 0 0 1 -9.046875,11.78125 5.328125,5.328125 0 0 1 -14.375,6.453125 5.328125,5.328125 0 0 1 -9.046875,1.125 5.328125,5.328125 0 0 1 -3.71875,6.453125 Z"
       transform="matrix(2.8683474,0,0,2.8683474,41.949581,1017.8524)" />
    <g
       id="g3802"
       transform="matrix(2,0,0,2,1.937501,-1052.4872)">
      <g
         transform="translate(-1.5535714,0.87946429)"
         id="g3840">
        <ellipse
           style="color:#000000;fill:#ff0000;fill-opacity:1;fill-rule:nonzero;stroke:none;stroke-width:1.93649173;marker:none;visibility:visible;display:inline;overflow:visible;enable-background:accumulate"
           id="path3755-0"
           transform="matrix(0.53333333,0,0,0.57435896,-0.80059485,1045.4384)"
           sodipodi:type="arc"
           sodipodi:ry="1.7410715"
           sodipodi:rx="1.875"
           sodipodi:cy="-4.2678571"
           sodipodi:cx="19.330357"
           d="m 21.205357,-4.2678571 a 1.875,1.7410715 0 0 1 -1.875,1.7410715 1.875,1.7410715 0 0 1 -1.875,-1.7410715 1.875,1.7410715 0 0 1 1.875,-1.7410714 1.875,1.7410715 0 0 1 1.875,1.7410714 z" />
        <ellipse
           style="color:#000000;fill:#ff0000;fill-opacity:1;fill-rule:nonzero;stroke:none;stroke-width:1.93649173;marker:none;visibility:visible;display:inline;overflow:visible;enable-background:accumulate"
           id="path3755"
           transform="matrix(0.53333333,0,0,0.57435896,-2.1666669,1045.2868)"
           sodipodi:type="arc"
           sodipodi:ry="1.7410715"
           sodipodi:rx="1.875"
           sodipodi:cy="-4.2678571"
           sodipodi:cx="19.330357"
           d="m 21.205357,-4.2678571 a 1.875,1.7410715 0 0 1 -1.875,1.7410715 1.875,1.7410715 0 0 1 -1.875,-1.7410715 1.875,1.7410715 0 0 1 1.875,-1.7410714 1.875,1.7410715 0 0 1 1.875,1.7410714 z" />
        <ellipse
           style="color:#000000;fill:#ffffff;fill-opacity:1;fill-rule:nonzero;stroke:none;stroke-width:1.93649173;marker:none;visibility:visible;display:inline;overflow:visible;enable-background:accumulate"
           id="path3755-3"
           transform="matrix(0.53333333,0,0,0.57435896,-2.4523806,1046.3313)"
           sodipodi:type="arc"
           sodipodi:ry="1.7410715"
           sodipodi:rx="1.875"
           sodipodi:cy="-4.2678571"
           sodipodi:cx="19.330357"
           d="m 21.205357,-4.2678571 a 1.875,1.7410715 0 0 1 -1.875,1.7410715 1.875,1.7410715 0 0 1 -1.875,-1.7410715 1.875,1.7410715 0 0 1 1.875,-1.7410714 1.875,1.7410715 0 0 1 1.875,1.7410714 z" />
        <ellipse
           style="color:#000000;fill:#ff0000;fill-opacity:1;fill-rule:nonzero;stroke:none;stroke-width:1.93649173;marker:none;visibility:visible;display:inline;overflow:visible;enable-background:accumulate"
           id="path3755-2"
           transform="matrix(0.53333333,0,0,0.57435896,-1.1577377,1046.6885)"
           sodipodi:type="arc"
           sodipodi:ry="1.7410715"
           sodipodi:rx="1.875"
           sodipodi:cy="-4.2678571"
           sodipodi:cx="19.330357"
           d="m 21.205357,-4.2678571 a 1.875,1.7410715 0 0 1 -1.875,1.7410715 1.875,1.7410715 0 0 1 -1.875,-1.7410715 1.875,1.7410715 0 0 1 1.875,-1.7410714 1.875,1.7410715 0 0 1 1.875,1.7410714 z" />
        <ellipse
           style="color:#000000;fill:#ffffff;fill-opacity:1;fill-rule:nonzero;stroke:none;stroke-width:1.93649173;marker:none;visibility:visible;display:inline;overflow:visible;enable-background:accumulate"
           id="path3755-3-5"
           transform="matrix(0.53333333,0,0,0.57435896,-1.1577377,1045.4831)"
           sodipodi:type="arc"
           sodipodi:ry="1.7410715"
           sodipodi:rx="1.875"
           sodipodi:cy="-4.2678571"
           sodipodi:cx="19.330357"
           d="m 21.205357,-4.2678571 a 1.875,1.7410715 0 0 1 -1.875,1.7410715 1.875,1.7410715 0 0 1 -1.875,-1.7410715 1.875,1.7410715 0 0 1 1.875,-1.7410714 1.875,1.7410715 0 0 1 1.875,1.7410714 z" />
      </g>
      <ellipse
         transform="matrix(0.72872342,0,0,0.81679389,5.3223783,1038.6142)"
         id="path3847"
         style="color:#000000;fill:none;stroke:#a09fc6;stroke-width:0.32404283;stroke-miterlimit:4;stroke-opacity:1;stroke-dasharray:none;marker:none;visibility:visible;display:inline;overflow:visible;enable-background:accumulate"
         sodipodi:type="arc"
         sodipodi:ry="2.9241071"
         sodipodi:rx="8.3928576"
         sodipodi:cy="7.0044641"
         sodipodi:cx="2.1428571"
         d="M 10.535715,7.0044641 A 8.3928576,2.9241071 0 0 1 2.1428571,9.9285712 8.3928576,2.9241071 0 0 1 -6.2500005,7.0044641 8.3928576,2.9241071 0 0 1 2.1428571,4.0803571 8.3928576,2.9241071 0 0 1 10.535715,7.0044641 Z" />
      <ellipse
         style="color:#000000;fill:none;stroke:#a09fc6;stroke-width:0.32404283;stroke-miterlimit:4;stroke-opacity:1;stroke-dasharray:none;marker:none;visibility:visible;display:inline;overflow:visible;enable-background:accumulate"
         id="path3849"
         transform="matrix(0.37310469,0.62596383,-0.7016152,0.41819656,10.998857,1040.0648)"
         sodipodi:type="arc"
         sodipodi:ry="2.9241071"
         sodipodi:rx="8.3928576"
         sodipodi:cy="7.0044641"
         sodipodi:cx="2.1428571"
         d="M 10.535715,7.0044641 A 8.3928576,2.9241071 0 0 1 2.1428571,9.9285712 8.3928576,2.9241071 0 0 1 -6.2500005,7.0044641 8.3928576,2.9241071 0 0 1 2.1428571,4.0803571 8.3928576,2.9241071 0 0 1 10.535715,7.0044641 Z" />
      <ellipse
         transform="matrix(0.48551913,-0.5434234,0.60909929,0.54419694,1.5771162,1041.688)"
         id="path3851"
         style="color:#000000;fill:none;stroke:#a09fc6;stroke-width:0.32404283;stroke-miterlimit:4;stroke-opacity:1;stroke-dasharray:none;marker:none;visibility:visible;display:inline;overflow:visible;enable-background:accumulate"
         sodipodi:type="arc"
         sodipodi:ry="2.9241071"
         sodipodi:rx="8.3928576"
         sodipodi:cy="7.0044641"
         sodipodi:cx="2.1428571"
         d="M 10.535715,7.0044641 A 8.3928576,2.9241071 0 0 1 2.1428571,9.9285712 8.3928576,2.9241071 0 0 1 -6.2500005,7.0044641 8.3928576,2.9241071 0 0 1 2.1428571,4.0803571 8.3928576,2.9241071 0 0 1 10.535715,7.0044641 Z" />
    </g>
  </g>
</svg>
