<?xml version="1.0" encoding="UTF-8" standalone="no"?>
<!-- Created with Inkscape (http://www.inkscape.org/) -->

<svg
   xmlns:dc="http://purl.org/dc/elements/1.1/"
   xmlns:cc="http://creativecommons.org/ns#"
   xmlns:rdf="http://www.w3.org/1999/02/22-rdf-syntax-ns#"
   xmlns:svg="http://www.w3.org/2000/svg"
   xmlns="http://www.w3.org/2000/svg"
   xmlns:sodipodi="http://sodipodi.sourceforge.net/DTD/sodipodi-0.dtd"
   xmlns:inkscape="http://www.inkscape.org/namespaces/inkscape"
   width="16px"
   height="16px"
   id="svg2987"
   version="1.1"
   inkscape:version="0.48.4 r9939"
   sodipodi:docname="attributes.svg">
  <defs
     id="defs2989" />
  <sodipodi:namedview
     id="base"
     pagecolor="#ffffff"
     bordercolor="#666666"
     borderopacity="1.0"
     inkscape:pageopacity="0.0"
     inkscape:pageshadow="2"
     inkscape:zoom="44.395604"
     inkscape:cx="11.066011"
     inkscape:cy="5.4426303"
     inkscape:current-layer="layer1"
     showgrid="true"
     inkscape:grid-bbox="true"
     inkscape:document-units="px"
     inkscape:window-width="2560"
     inkscape:window-height="1380"
     inkscape:window-x="0"
     inkscape:window-y="0"
     inkscape:window-maximized="1" />
  <metadata
     id="metadata2992">
    <rdf:RDF>
      <cc:Work
         rdf:about="">
        <dc:format>image/svg+xml</dc:format>
        <dc:type
           rdf:resource="http://purl.org/dc/dcmitype/StillImage" />
        <dc:title></dc:title>
      </cc:Work>
    </rdf:RDF>
  </metadata>
  <g
     id="layer1"
     inkscape:label="Layer 1"
     inkscape:groupmode="layer">
    <path
       sodipodi:type="arc"
       style="color:#000000;fill:#ffbf00;fill-opacity:1;fill-rule:nonzero;stroke:none;stroke-width:3.13430046999999989;marker:none;visibility:visible;display:inline;overflow:visible;enable-background:accumulate"
       id="path2991"
       sodipodi:cx="2.0535715"
       sodipodi:cy="18.910715"
       sodipodi:rx="30.089285"
       sodipodi:ry="30.089285"
       d="m 32.142856,18.910715 a 30.089285,30.089285 0 1 1 -60.178569,0 30.089285,30.089285 0 1 1 60.178569,0 z"
       transform="matrix(-0.1495549,0,0,-0.1495549,8.2063314,10.448982)" />
    <path
       sodipodi:type="arc"
       style="color:#000000;fill:#000000;fill-opacity:1;fill-rule:nonzero;stroke:none;stroke-width:3.13430047;marker:none;visibility:visible;display:inline;overflow:visible;enable-background:accumulate"
       id="path2991-6-0"
       sodipodi:cx="2.0535715"
       sodipodi:cy="18.910715"
       sodipodi:rx="30.089285"
       sodipodi:ry="30.089285"
       d="m 32.142856,18.910715 a 30.089285,30.089285 0 1 1 -60.178569,0 30.089285,30.089285 0 1 1 60.178569,0 z"
       transform="matrix(-0.06646884,0,0,-0.06646884,11.585803,6.422582)"
       inkscape:export-filename="/home/naujokat/git/itmc/cinco-inhouse-examples/ProcessModeler/info.scce.dime/icons/attributeAssociationPort.png"
       inkscape:export-xdpi="90"
       inkscape:export-ydpi="90" />
    <path
       sodipodi:type="arc"
       style="color:#000000;fill:#000000;fill-opacity:1;fill-rule:nonzero;stroke:none;stroke-width:3.13430047;marker:none;visibility:visible;display:inline;overflow:visible;enable-background:accumulate"
       id="path2991-6"
       sodipodi:cx="2.0535715"
       sodipodi:cy="18.910715"
       sodipodi:rx="30.089285"
       sodipodi:ry="30.089285"
       d="m 32.142856,18.910715 a 30.089285,30.089285 0 1 1 -60.178569,0 30.089285,30.089285 0 1 1 60.178569,0 z"
       transform="matrix(-0.06646884,0,0,-0.06646884,11.492229,11.331282)" />
  </g>
</svg>
