Data _tH3fEMwMEeWZVvvwxpYu8A {
  modelName "Data"
  UserType _UdYs4MwNEeWZVvvwxpYu8A at 7,190 size 177,145  {
  	name "BaseUser"
  	UserAttribute _fOkXgMwNEeWZVvvwxpYu8A at 5,32 size 167,18  {
  		oppositeAttribute _fPY24MwNEeWZVvvwxpYu8A
  		dataType _dh6BYMwNEeWZVvvwxpYu8A
  		name "concreteUser"
  		isList true
  	}
  	
  	PrimitiveAttribute _YIIgUMwNEeWZVvvwxpYu8A at 5,50 size 167,18  {
  		dataType Text
  		name "password"
  		isList false
  	}
  	
  	PrimitiveAttribute _3QnzMM46EeWKGIrSDzlNog at 5,68 size 167,18  {
  		dataType File
  		name "image"
  		isList false
  	}
  	
  	PrimitiveAttribute _VE6ToM5BEeWKGIrSDzlNog at 5,86 size 167,18  {
  		dataType Text
  		name "firstName"
  		isList false
  	}
  	
  	PrimitiveAttribute _WYcYEM5BEeWKGIrSDzlNog at 5,104 size 167,18  {
  		dataType Text
  		name "lastName"
  		isList false
  	}
  	
  	PrimitiveAttribute _1aiCkG_QEeaqHezD6-M0AA at 5,122 size 167,18  {
  		dataType Text
  		name "username"
  		isList false
  	}
  	-UserAssociation-> _dh6BYMwNEeWZVvvwxpYu8A  decorate "Text" at (4,-8) decorate "Text" at (12,-7) {
  		id _fOZ_cMwNEeWZVvvwxpYu8A
  		targetAttr _fOkXgMwNEeWZVvvwxpYu8A
  		isHidden false
  		sourceAttr _fPY24MwNEeWZVvvwxpYu8A
  	}
  }
  
  ConcreteType _dh6BYMwNEeWZVvvwxpYu8A at 30,31 size 131,73  {
  	name "RedditUser"
  	UserAttribute _fPY24MwNEeWZVvvwxpYu8A at 5,32 size 121,18  {
  		oppositeAttribute _fOkXgMwNEeWZVvvwxpYu8A
  		dataType _UdYs4MwNEeWZVvvwxpYu8A
  		name "baseUser"
  		isList false
  	}
  	
  	BidirectionalAttribute _jY03YHUEEeaJnsj-qiQmGw at 5,50 size 121,18  {
  		oppositeAttribute _jZLcsHUEEeaJnsj-qiQmGw
  		dataType _hoAaAHUEEeaJnsj-qiQmGw
  		name "threads"
  		isList true
  	}
  	-BidirectionalAssociation-> _hoAaAHUEEeaJnsj-qiQmGw  decorate "Text" at (-17,8) decorate "Text" at (-11,8) {
  		id _jYv-4HUEEeaJnsj-qiQmGw
  		targetAttr _jY03YHUEEeaJnsj-qiQmGw
  		isHidden false
  		sourceAttr _jZLcsHUEEeaJnsj-qiQmGw
  	}
  }
  
  ConcreteType _hoAaAHUEEeaJnsj-qiQmGw at 320,4 size 140,127  {
  	name "Thread"
  	BidirectionalAttribute _jZLcsHUEEeaJnsj-qiQmGw at 5,32 size 130,18  {
  		oppositeAttribute _jY03YHUEEeaJnsj-qiQmGw
  		dataType _dh6BYMwNEeWZVvvwxpYu8A
  		name "author"
  		isList false
  	}
  	
  	PrimitiveAttribute _pFeRIHUEEeaJnsj-qiQmGw at 5,50 size 130,18  {
  		dataType Text
  		name "content"
  		isList false
  	}
  	
  	PrimitiveAttribute _MHfQ8Hm8Eeany527l2d94g at 5,68 size 130,18  {
  		dataType Text
  		name "url"
  		isList false
  	}
  	
  	PrimitiveAttribute _vGnGoIPKEeaqVP_QLr7_9Q at 5,86 size 130,18  {
  		dataType Text
  		name "title"
  		isList false
  	}
  	
  	PrimitiveAttribute _Lb-ncIPQEeapY6NtlXVcsA at 5,104 size 130,18  {
  		dataType Integer
  		name "score"
  		isList false
  	}
  }
}
